{
  "streams": [
    {
      "title": "Combat HD PNGN",
      "url": "http://51.178.220.156/?watch=PY-N/Combate_HD-br&token=RED_apdO-nxwlNUv7VKf4dRmAQ==,1610457723.6160084357&t=0&s=12&p=1&c=DZ&r=304",
      "name": "NIGHT CITY"
    },
    {
      "url": "http://srv.maxptv.net:8080/Liza/1234/201",
      "title": "COMBATE HD SRV",
      "name": "NIGHT CITY"
    },
    {
      "url": "http://srv.maxptv.net:8080/Liza/1234/200",
      "title": "Combate SD SRV",
      "name": "NIGHT CITY"
    }
  ]
}