{
	"streams": [
    {
      "title": "DAZN BRASIL HD PNGN",
      "url": "http://51.178.220.156/?watch=PY-N/DAZN_BRASIL_HD_-br&token=RED_apdO-nxwlNUv7VKf4dRmAQ==,1610457723.6160084357&t=1&s=12&p=1&c=DZ&r=304",
      "name": "NIGHT CITY"
    },
    {
      "title": "DAZN BRASIL HD PNGN",
      "url": "http://51.178.220.156/?watch=PY-N/DAZN_BRASIL_HD_-br&token=RED_apdO-nxwlNUv7VKf4dRmAQ==,1610457723.6160084357&t=1&s=12&p=1&c=DZ&r=304",
      "name": "NIGHT CITY"
    },
    {
      "title": "DAZN HD 1 PNGN",
      "url": "http://51.178.220.156/?watch=PY-N/DAZN-HD_-br&token=RED_apdO-nxwlNUv7VKf4dRmAQ==,1610457723.6160084357&t=0&s=12&p=1&c=DZ&r=304",
      "name": "NIGHT CITY"
    },
    {
      "title": "DAZN HD 2 PNGN",
      "url": "http://51.178.220.156/?watch=PY-N/DAZN-HD2_-br&token=RED_apdO-nxwlNUv7VKf4dRmAQ==,1610457723.6160084357&t=1&s=12&p=1&c=DZ&r=304",
      "name": "NIGHT CITY"
    },
    {
      "title": "DAZN HD 3 PNGN",
      "url": "http://51.178.220.156/?watch=PY-N/DAZN-HD3_-br&token=RED_apdO-nxwlNUv7VKf4dRmAQ==,1610457723.6160084357&t=1&s=12&p=1&c=DZ&r=304",
      "name": "NIGHT CITY"
    },
    {
      "url": "http://srv.maxptv.net:8080/Liza/1234/19542",
      "title": "DAZN 1 SRV",
      "name": "NIGHT CITY"
    },
    {
      "url": "http://srv.maxptv.net:8080/Liza/1234/19543",
      "title": "DAZN 2 SRV",
      "name": "NIGHT CITY"
    },
    {
      "url": "http://srv.maxptv.net:8080/Liza/1234/19544",
      "title": "DAZN 3 SRV",
      "name": "NIGHT CITY"
    },
    {
      "url": "http://srv.maxptv.net:8080/Liza/1234/19545",
      "title": "DAZN 4 SRV",
      "name": "NIGHT CITY"
    }
  ]
}