{
  "streams": [
    {
      "title": "Disc. Home Health HD PNGN",
      "url": "http://51.178.220.156/?watch=PY-N/Disc-_Home_Health_HD-br&token=RED_apdO-nxwlNUv7VKf4dRmAQ==,1610457723.6160084357&t=0&s=12&p=1&c=DZ&r=304",
      "name": "NIGHT CITY"
    },
    {
      "url": "http://srv.maxptv.net:8080/Liza/1234/20265",
      "title": "Disc. Home & Health FHD SRV",
      "name": "NIGHT CITY"
    },
    {
      "url": "http://srv.maxptv.net:8080/Liza/1234/191",
      "title": "Discovery Home & Health HD SRV",
      "name": "NIGHT CITY"
    },
    {
      "url": "http://srv.maxptv.net:8080/Liza/1234/190",
      "title": "Discovery Home & Health SD SRV",
      "name": "NIGHT CITY"
    }
  ]
}