{
  "streams": [
    {
      "title": "FOX Premium 2 HD PNGN",
      "url": "http://51.178.220.156/?watch=PY-N/Fox_Premium_2_HD-br&token=RED_apdO-nxwlNUv7VKf4dRmAQ==,1610457723.6160084357&t=0&s=12&p=1&c=DZ&r=304",
      "name": "NIGHT CITY"
    },
    {
      "url": "http://srv.maxptv.net:8080/Liza/1234/20251",
      "title": "Fox Premium 2 FHD SRV",
      "name": "NIGHT CITY"
    },
    {
      "url": "http://srv.maxptv.net:8080/Liza/1234/526",
      "title": "Fox Premium 2 HD SRV",
      "name": "NIGHT CITY"
    },
    {
      "url": "http://srv.maxptv.net:8080/Liza/1234/527",
      "title": "Fox Premium 2 SD SRV",
      "name": "NIGHT CITY"
    }
  ]
}