{
  "streams": [
    {
      "title": "Sportv HD PNGN",
      "url": "http://51.178.220.156/?watch=PY-N/Sportv_HD-br&token=RED_apdO-nxwlNUv7VKf4dRmAQ==,1610457723.6160084357&t=0&s=12&p=1&c=DZ&r=304",
      "name": "NIGHT CITY"
    },
    {
      "title": "SporTV HD Alternativo PNGN",
      "url": "http://51.178.220.156/?watch=PY-N/SporTV_HD_Alternativo-br&token=RED_apdO-nxwlNUv7VKf4dRmAQ==,1610457723.6160084357&t=0&s=12&p=1&c=DZ&r=304",
      "name": "NIGHT CITY"
    },
    {
      "title": "SPORT TV NBA PNGN",
      "url": "http://51.178.220.156/?watch=PY-N/SPORT_TV_NBA_-br&token=RED_apdO-nxwlNUv7VKf4dRmAQ==,1610457723.6160084357&t=1&s=12&p=1&c=DZ&r=304",
      "name": "NIGHT CITY"
    },
    {
      "title": "SPORT TV 5 PNGN",
      "url": "http://51.178.220.156/?watch=PY-N/SPORT_TV_5_-br&token=RED_apdO-nxwlNUv7VKf4dRmAQ==,1610457723.6160084357&t=1&s=12&p=1&c=DZ&r=304",
      "name": "NIGHT CITY"
    },
    {
      "url": "http://srv.maxptv.net:8080/Liza/1234/49",
      "title": "SporTV HD SRV",
      "name": "NIGHT CITY"
    },
    {
      "url": "http://srv.maxptv.net:8080/Liza/1234/48",
      "title": "SporTV SD SRV",
      "name": "NIGHT CITY"
    }
  ]
}