{
  "streams": [
    {
      "title": "Canal Sony HD PNGN",
      "url": "http://51.178.220.156/?watch=PY-N/Canal_Sony_HD-br&token=RED_apdO-nxwlNUv7VKf4dRmAQ==,1610457723.6160084357&t=0&s=12&p=1&c=DZ&r=304",
      "name": "NIGHT CITY"
    },
    {
      "url": "http://srv.maxptv.net:8080/Liza/1234/20233",
      "title": "Canal Sony FHD SRV",
      "name": "NIGHT CITY"
    },
    {
      "url": "http://srv.maxptv.net:8080/Liza/1234/53",
      "title": "Canal Sony HD SRV",
      "name": "NIGHT CITY"
    },
    {
      "url": "http://srv.maxptv.net:8080/Liza/1234/52",
      "title": "Canal Sony SD SRV",
      "name": "NIGHT CITY"
    }
  ]
}