{
  "streams": [
    {
      "title": "TNT Series HD PNGN",
      "url": "http://51.178.220.156/?watch=PY-N/TNT_Series_HD-br&token=RED_apdO-nxwlNUv7VKf4dRmAQ==,1610457723.6160084357&t=0&s=12&p=1&c=DZ&r=304",
      "name": "NIGHT CITY"
    },
    {
      "url": "http://srv.maxptv.net:8080/Liza/1234/517",
      "title": "TNT Series HD SRV",
      "name": "NIGHT CITY"
    },
    {
      "url": "http://srv.maxptv.net:8080/Liza/1234/18",
      "title": "TNT Series SD SRV",
      "name": "NIGHT CITY"
    }
  ]
}